Using R for Text Mining: Clean the Text
…
Next step is tokenization, where we split the text into units, or tokens for further analyses. We will use the function unnest_tokens to break the lyrics into words and strip punctuations.

R

library(tidytext)

unnest_tokens(tbl = lyrics_df,
              output = word,
              input = lyrics)

# A tibble: 41 × 2
    line word  
   <int> <chr> 
 1     1 how   
 2     1 many  
 3     1 roads 
 4     1 must  
 5     1 a     
 6     1 man   
 7     1 walk  
 8     1 down  
 9     2 before
10     2 you   
# … with 31 more rows
…
