…
Sentiment Analysis identifies the emotional tone behind a body of text. When human readers approach a text, we use our understanding of the emotional intent of words to infer whether a section of text is positive or negative, or perhaps characterized by some other more nuanced emotion like surprise or disgust. Sentiment Analysis or opinion mining is a text analysis technique that automatically identifies and extracts the sentiment tone from within text. The analysis utilizes lexicons to help analyze the content of the other texts. The lexicons have already identified words with the emotional tone that then can be compared to in other texts.



The `tidytext` package comes with one sentiment lexicon and the `textdata` comes with two others. The lexicons are the sentiment lexicons from [Bing Liu and collaborators]( https://www.cs.uic.edu/~liub/FBS/sentiment-analysis.html), the [NRC Emotion Lexicon]( http://saifmohammad.com/WebPages/NRC-Emotion-Lexicon.htm) from Saif Mohammad and Peter Turney, and the lexicon of [Finn Arup Nielsen]( http://www2.imm.dtu.dk/pubdb/pubs/6010-full.html). These lexicons are based on unigrams, i.e., single words from the English language. The `bing` lexicon is from `tidytext` package and categorizes words into positive or negative. The next two lexicons are from the `textdata` package. The `nrc` lexicon categorizes words into emotions anger, sadness, surprise, and joy, and the `afinn` lexicon categorizes words using a score, with negative scores indicating a negative sentiment.

The function `get_sentiments()` allows us to get specific sentiment lexicons with the appropriate measures for each one. Let's look at how each of the lexicons attributes sentiment to the words. 

```r
library(tidytext)
get_sentiments("bing")
```
```output
#> # A tibble: 6,786 × 2
#>    word        sentiment
#>    <chr>       <chr>    
#>  1 2-faces     negative 
#>  2 abnormal    negative 
#>  3 abolish     negative 
#>  4 abominable  negative 
#>  5 abominably  negative 
#>  6 abominate   negative 
#>  7 abomination negative 
#>  8 abort       negative 
#>  9 aborted     negative 
#> 10 aborts      negative 
#> # … with 6,776 more rows
```

```r
library(textdata)
get_sentiments("nrc")
```

```output
#> # A tibble: 13,901 × 2
#>    word        sentiment
#>    <chr>       <chr>    
#>  1 abacus      trust    
#>  2 abandon     fear     
#>  3 abandon     negative 
#>  4 abandon     sadness  
#>  5 abandoned   anger    
#>  6 abandoned   fear     
#>  7 abandoned   negative 
#>  8 abandoned   sadness  
#>  9 abandonment anger    
#> 10 abandonment fear     
#> # … with 13,891 more rows
```
…
## Challenge 1: Can you do it?

What command in R will display the afinn lexicon?

```r
get_sentiments("afinn")
```

:::::::::::::::::::::::: solution 

## Output
 
```output
#> # A tibble: 2,477 × 2
#>    word       value
#>    <chr>      <dbl>
#>  1 abandon       -2
#>  2 abandoned     -2
#>  3 abandons      -2
#>  4 abducted      -2
#>  5 abduction     -2
#>  6 abductions    -2
#>  7 abhor         -3
#>  8 abhorred      -3
#>  9 abhorrent     -3
#> 10 abhors        -3
#> # … with 2,467 more rows
```
…
nrc_joy <- get_sentiments("nrc") %>% 
  filter(sentiment == "joy")


hgwells_books %>%
  filter(book == "The Time Machine") %>%
  inner_join(nrc_joy) %>%
  count(word, sort = TRUE)
  
tidy_time_machine
```
```output
# A tibble: 164 × 2
   word          n
   <chr>     <int>
 1 found        44
 2 sun          29
 3 green        28
 4 feeling      20
 5 beautiful    12
 6 save         11
 7 comfort      10
 8 humanity     10
 9 perfect       9
10 abundant      8
# … with 154 more rows
```
…
## Most common positive and negative words

By implementing `count()` here with arguments of both word and sentiment, we find out how much each word contributed to each sentiment.
 
 
```r 
bing_word_counts <- hgwells_books %>%
  inner_join(get_sentiments("bing")) %>%
  count(word, sentiment, sort = TRUE) %>%
  ungroup()
  
  bing_word_counts
```
```output
# A tibble: 1,761 × 3
   word      sentiment     n
   <chr>     <chr>     <int>
 1 invisible negative    197
 2 marvel    positive    114
 3 strange   negative    107
 4 smoke     negative     92
 5 dark      negative     80
 6 darkness  negative     70
 7 slowly    negative     70
 8 stranger  negative     65
 9 fell      negative     59
10 struck    negative     56
# … with 1,751 more rows
```
…
The word “invisible” is coded as negative but since it is used to describe the condition and the main character in one of the books, let's take it out and see how it changes the sentiment. If it were appropriate for our purposes, we could easily add “invisible” to a custom stop-words list using bind_rows(). We could implement that with a strategy such as this：

```r 
custom_stop_words <- tibble(word = c("invisible"), lexicon = c("custom")) %>% 
  bind_rows(stop_words)
  
  custom_stop_words
 ``` 

 ```output 
# A tibble: 1,150 × 2
   word        lexicon
   <chr>       <chr>  
 1 invisible   custom 
 2 a           SMART  
 3 a's         SMART  
 4 able        SMART  
 5 about       SMART  
 6 above       SMART  
 7 according   SMART  
 8 accordingly SMART  
 9 across      SMART  
10 actually    SMART  
# … with 1,140 more rows
```
…
