Using R for Text Mining: All in One View
…
input: the column that gets split as string or symbol.

R

install.package("tidytext")
library(tidytext)

unnest_tokens(tbl = lyrics_df,
              output = word,
              input = lyrics)

OUTPUT

# A tibble: 41 × 2
    line word  
   <int> <chr> 
 1     1 how   
 2     1 many  
 3     1 roads 
 4     1 must  
 5     1 a     
 6     1 man   
 7     1 walk  
 8     1 down  
 9     2 before
10     2 you   
# … with 31 more rows
…
R

time_machine <- gutenberg_download(35)

time_machine

OUTPUT

# A tibble: 3,174 × 2
   gutenberg_id text              
          <int> <chr>             
 1           35 "The Time Machine"
 2           35 ""                
 3           35 "An Invention"    
 4           35 ""                
 5           35 "by H. G. Wells"  
 6           35 ""                
 7           35 ""                
 8           35 "CONTENTS"        
 9           35 ""                
10           35 " I Introduction" 
# … with 3,164 more rows
# ℹ Use `print(n = ...)` to see more rows

We can preprocess the text by tokenizing it words, removing punctuations, converting it to lower case, and removing stop words. The clean data has 11,268 rows and each row contains one word.

R

tidy_time_machine <- time_machine %>% 
  unnest_tokens(word,text) %>% 
  anti_join(stop_words)
  
tidy_time_machine 

OUTPUT

# A tibble: 11,268 × 2
   gutenberg_id word        
          <int> <chr>       
 1           35 time        
 2           35 machine     
 3           35 invention   
 4           35 contents    
 5           35 introduction
 6           35 ii          
 7           35 machine     
 8           35 iii         
 9           35 time        
10           35 traveller   
# … with 11,258 more rows
# ℹ Use `print(n = ...)` to see more rows
…
R

gutenberg_metadata %>% 
  filter(title == "The War of the Worlds" | title == "The Invisible Man: A Grotesque Romance") # The Gutenberg IDs are 36 and 5230 respectively.

hgwells <- gutenberg_download(c(35, 36, 5230))
tidy_hgwells <- hgwells %>%
  unnest_tokens(word, text) %>% 
  anti_join(stop_words)

tidy_hgwells

OUTPUT

# A tibble: 52,313 × 2
   gutenberg_id word        
          <int> <chr>       
 1           35 time        
 2           35 machine     
 3           35 invention   
 4           35 contents    
 5           35 introduction
 6           35 ii          
 7           35 machine     
 8           35 iii         
 9           35 time        
10           35 traveller   
# … with 52,303 more rows
# ℹ Use `print(n = ...)` to see more rows

Word Frequencies

Since many text analysis methods are based on word counts in the textual data, we can first calculate word counts or word frequency. Word frequency looks at how often words are repeated in texts. To count the words, we can use the function count from the package dplyr.

R

tidy_time_machine %>% 
  count(word, sort = TRUE)

OUTPUT

# A tibble: 4,172 × 2
   word          n
   <chr>     <int>
 1 time        207
 2 machine      88
 3 white        61
 4 traveller    57
 5 hand         49
 6 morlocks     48
 7 people       46
 8 weena        46
 9 found        44
10 light        43
# … with 4,162 more rows
# ℹ Use `print(n = ...)` to see more rows
…
Sentiment Analysis identifies the emotional tone behind a body of text. When human readers approach a text, we use our understanding of the emotional intent of words to infer whether a section of text is positive or negative, or perhaps characterized by some other more nuanced emotions like surprise or disgust. Sentiment Analysis or opinion mining is a text analysis technique that automatically identifies and extracts the sentiment tone from within text. The analysis utilizes lexicons to help analyze the content as the lexicons have already identified words with the emotional tone that can be compared to other texts.

The tidytext package comes with one sentiment lexicon and the textdata comes with two others. The lexicons we will use are the sentiment lexicon from Bing Liu and collaborators, the NRC Emotion Lexicon from Saif Mohammad and Peter Turney, and the lexicon of Finn Arup Nielsen. These general-purpose lexicons are based on unigrams, i.e., single words from the English language. The bing lexicon is from tidytext package and categorizes words into positive or negative. The next two lexicons are from the textdata package. The nrc lexicon categorizes words into emotions anger, sadness, surprise, and joy, and the afinn lexicon categorizes words using a score, with negative scores indicating a negative sentiment.

The function get_sentiments() allows us to get specific sentiment lexicons with the appropriate measures for each one. Let’s look at how each of the lexicons attributes sentiment to the words.

R

library(tidytext)
get_sentiments("bing")

OUTPUT

#> # A tibble: 6,786 × 2
#>    word        sentiment
#>    <chr>       <chr>    
#>  1 2-faces     negative 
#>  2 abnormal    negative 
#>  3 abolish     negative 
#>  4 abominable  negative 
#>  5 abominably  negative 
#>  6 abominate   negative 
#>  7 abomination negative 
#>  8 abort       negative 
#>  9 aborted     negative 
#> 10 aborts      negative 
#> # … with 6,776 more rows

R

library(textdata)
get_sentiments("nrc")

OUTPUT

#> # A tibble: 13,901 × 2
#>    word        sentiment
#>    <chr>       <chr>    
#>  1 abacus      trust    
#>  2 abandon     fear     
#>  3 abandon     negative 
#>  4 abandon     sadness  
#>  5 abandoned   anger    
#>  6 abandoned   fear     
#>  7 abandoned   negative 
#>  8 abandoned   sadness  
#>  9 abandonment anger    
#> 10 abandonment fear     
#> # … with 13,891 more rows
Challenge 1: Can you do it?

What command in R will display the afinn lexicon?

  Show me the solution

R

get_sentiments("afinn")

Output

OUTPUT

#> # A tibble: 2,477 × 2
#>    word       value
#>    <chr>      <dbl>
#>  1 abandon       -2
#>  2 abandoned     -2
#>  3 abandons      -2
#>  4 abducted      -2
#>  5 abduction     -2
#>  6 abductions    -2
#>  7 abhor         -3
#>  8 abhorred      -3
#>  9 abhorrent     -3
#> 10 abhors        -3
#> # … with 2,467 more rows
…
Let’s look at the words with a joy score from the NRC lexicon. What are the most common joy words in the novel The Time Machine. First, let’s use the NRC lexicon and filter() for the joy words and then use inner_join() to perform the sentiment analysis. Let’s use count() from dplyr. What are the most common joy words in The Time Machine?

R

nrc_joy <- get_sentiments("nrc") %>% 
  filter(sentiment == "joy")

hgwells_books %>%
  filter(book == "The Time Machine") %>%
  inner_join(nrc_joy) %>%
  count(word, sort = TRUE)

OUTPUT

# A tibble: 164 × 2
   word          n
   <chr>     <int>
 1 found        44
 2 sun          29
 3 green        28
 4 feeling      20
 5 beautiful    12
 6 save         11
 7 comfort      10
 8 humanity     10
 9 perfect       9
10 abundant      8
# … with 154 more rows
…
Most common positive and negative words

By implementing count() here with arguments of both word and sentiment, we find out how much each word contributed to each sentiment.

R

bing_word_counts <- hgwells_books %>%
  inner_join(get_sentiments("bing")) %>%
  count(word, sentiment, sort = TRUE) 
   
  bing_word_counts

OUTPUT

# A tibble: 1,761 × 3
   word      sentiment     n
   <chr>     <chr>     <int>
 1 invisible negative    197
 2 marvel    positive    114
 3 strange   negative    107
 4 smoke     negative     92
 5 dark      negative     80
 6 darkness  negative     70
 7 slowly    negative     70
 8 stranger  negative     65
 9 fell      negative     59
10 struck    negative     56
# … with 1,751 more rows
…
The word “invisible” is coded as negative but since it is used to describe the condition and the main character in one of the books, let’s take it out and see how it changes the sentiment. If it were appropriate for our purposes, we could easily add “invisible” to a custom stop-words list using bind_rows(). We could implement that with a strategy such as this：

R

custom_stop_words <- tibble(word = c("invisible"), lexicon = c("custom")) %>% 
  bind_rows(stop_words)
  
  custom_stop_words

OUTPUT

# A tibble: 1,150 × 2
  word        lexicon
  <chr>       <chr>  
1 invisible   custom 
2 a           SMART  
3 a's         SMART  
4 able        SMART  
5 about       SMART  
6 above       SMART  
7 according   SMART  
8 accordingly SMART  
9 across      SMART  
10 actually    SMART  
# … with 1,140 more rows
…
