…
 1. tbl: the data frame to be tokenized.
 2. output: the column to be created as string or symbol.
 3. input: the column that gets split as string or symbol.

```r
library(tidytext)

unnest_tokens(tbl = lyrics_df,
              output = word,
              input = lyrics)
```

```outupt
# A tibble: 41 × 2
    line word  
   <int> <chr> 
 1     1 how   
 2     1 many  
 3     1 roads 
 4     1 must  
 5     1 a     
 6     1 man   
 7     1 walk  
 8     1 down  
 9     2 before
10     2 you   
# … with 31 more rows
```
…
