…
 1. tbl: the data frame to be tokenized.
 2. output: the column to be created as string or symbol.
 3. input: the column that gets split as string or symbol.

```r
install.package("tidytext")
library(tidytext)

unnest_tokens(tbl = lyrics_df,
              output = word,
              input = lyrics)
```

```output
# A tibble: 41 × 2
    line word  
   <int> <chr> 
 1     1 how   
 2     1 many  
 3     1 roads 
 4     1 must  
 5     1 a     
 6     1 man   
 7     1 walk  
 8     1 down  
 9     2 before
10     2 you   
# … with 31 more rows
```
…
```r
install.packages("gutenbergr")
library(gutenbergr)

time_machine <- gutenberg_download(35)
hgwells <- gutenberg_download(c(35, 36, 5230))
time_machine

```
```output
# A tibble: 3,174 × 2
   gutenberg_id text              
          <int> <chr>             
 1           35 "The Time Machine"
 2           35 ""                
 3           35 "An Invention"    
 4           35 ""                
 5           35 "by H. G. Wells"  
 6           35 ""                
 7           35 ""                
 8           35 "CONTENTS"        
 9           35 ""                
10           35 " I Introduction" 
# … with 3,164 more rows
# ℹ Use `print(n = ...)` to see more rows
```

We can preprocess the text by tokenizing it words, removing punctuations, converting it to lower case, 
and removing stop words. The clean data has 11,268 rows and each row contains one word.  

```r
tidy_time_machine <- time_machine %>% 
  unnest_tokens(word,text) %>% 
  anti_join(stop_words)
  
tidy_time_machine 
```

```output
# A tibble: 11,268 × 2
   gutenberg_id word        
          <int> <chr>       
 1           35 time        
 2           35 machine     
 3           35 invention   
 4           35 contents    
 5           35 introduction
 6           35 ii          
 7           35 machine     
 8           35 iii         
 9           35 time        
10           35 traveller   
# … with 11,258 more rows
# ℹ Use `print(n = ...)` to see more rows
```
…
:::::::::::::::::::::::: solution 

## Output

```r
tidy_hgwells <- hgwells %>%
  unnest_tokens(word, text) %>% 
  anti_join(stop_words)

tidy_hgwells
```
```output
# A tibble: 52,313 × 2
   gutenberg_id word        
          <int> <chr>       
 1           35 time        
 2           35 machine     
 3           35 invention   
 4           35 contents    
 5           35 introduction
 6           35 ii          
 7           35 machine     
 8           35 iii         
 9           35 time        
10           35 traveller   
# … with 52,303 more rows
# ℹ Use `print(n = ...)` to see more rows
```
…
::::::::::::::::::::::::::::::::::::::::::::::::

## Word Frequencies

Since many text analysis methods are based on word counts in the textual data, we can first calculate word counts or 
word frequency. Word frequency looks at how how often words are repeat in texts. To count the words, we can use the 
function [count](https://dplyr.tidyverse.org/reference/count.html) from the package [dplyr](https://cran.r-project.org/web/packages/dplyr/vignettes/dplyr.html).  

```r
tidy_time_machine %>% 
  count(word, sort = TRUE)
```

```output
# A tibble: 4,172 × 2
   word          n
   <chr>     <int>
 1 time        207
 2 machine      88
 3 white        61
 4 traveller    57
 5 hand         49
 6 morlocks     48
 7 people       46
 8 weena        46
 9 found        44
10 light        43
# … with 4,162 more rows
# ℹ Use `print(n = ...)` to see more rows
```
…
