…
Sentiment Analysis identifies the emotional tone behind a body of text. Sentiment Analysis or opinion mining is a text analysis technique that automatically identify and extracts the sentiment tone from within text. The analysis utilizes lexicons to help analyze the content of the other texts. The lexicons have already identified words the emotional tone that then can be compared to in other texts.



The `tidytext` package comes with three sentiment lexicons in the sentiment’s dataset. The lexicons are the sentiment lexicon from [Bing Liu and collaborators]( https://www.cs.uic.edu/~liub/FBS/sentiment-analysis.html), the [NRC Emotion Lexicon]( http://saifmohammad.com/WebPages/NRC-Emotion-Lexicon.htm) from Saif Mohammad and Peter Turney, and the lexicon of [Finn Arup Nielsen]( http://www2.imm.dtu.dk/pubdb/pubs/6010-full.html). These lexicons are based on unigrams, i.e., single words from the English language. The `bing` lexicon categorizes words into positive or negative, the `nrc` lexicon categorizes words into emotions anger, sadness, surprise, and joy, and the `AFINN` lexicon categorizes words using a score, with negative scores indicating a negative sentiment.

The function `get_sentiments()` allows us to get specific sentiment lexicons with the appropriate measures for each one. Let's look at how each of the lexicons attributes sentiment to the words. 

```r
library(tidytext)
get_sentiments("bing")
```
```output
#> # A tibble: 6,786 × 2
#>    word        sentiment
#>    <chr>       <chr>    
#>  1 2-faces     negative 
#>  2 abnormal    negative 
#>  3 abolish     negative 
#>  4 abominable  negative 
#>  5 abominably  negative 
#>  6 abominate   negative 
#>  7 abomination negative 
#>  8 abort       negative 
#>  9 aborted     negative 
#> 10 aborts      negative 
#> # … with 6,776 more rows
```

```r
get_sentiments("nrc")
```

```output
#> # A tibble: 13,901 × 2
#>    word        sentiment
#>    <chr>       <chr>    
#>  1 abacus      trust    
#>  2 abandon     fear     
#>  3 abandon     negative 
#>  4 abandon     sadness  
#>  5 abandoned   anger    
#>  6 abandoned   fear     
#>  7 abandoned   negative 
#>  8 abandoned   sadness  
#>  9 abandonment anger    
#> 10 abandonment fear     
#> # … with 13,891 more rows
```
…
## Challenge 1: Can you do it?

What command in R will display the afinn lexicon?

```r
get_sentiments("afinn")
```

:::::::::::::::::::::::: solution 

## Output
 
```output
#> # A tibble: 2,477 × 2
#>    word       value
#>    <chr>      <dbl>
#>  1 abandon       -2
#>  2 abandoned     -2
#>  3 abandons      -2
#>  4 abducted      -2
#>  5 abduction     -2
#>  6 abductions    -2
#>  7 abhor         -3
#>  8 abhorred      -3
#>  9 abhorrent     -3
#> 10 abhors        -3
#> # … with 2,467 more rows
```
…
